{
    "prepare_queue": {
        "installed": [],
        "uninstalled": []
    },
    "config_munge": {
        "files": {}
    },
    "installed_plugins": {
        "com.okaybmd.cordova.plugin.datepicker": {
            "PACKAGE_NAME": "com.maskeyconsultancy.blooddonation"
        },
        "cordova-plugin-camera": {
            "PACKAGE_NAME": "com.maskeyconsultancy.blooddonation"
        },
        "cordova-plugin-dialogs": {
            "PACKAGE_NAME": "com.maskeyconsultancy.blooddonation"
        },
        "cordova-plugin-file": {
            "PACKAGE_NAME": "com.maskeyconsultancy.blooddonation"
        },
        "cordova-plugin-file-transfer": {
            "PACKAGE_NAME": "com.maskeyconsultancy.blooddonation"
        },
        "cordova-plugin-firebase": {
            "PACKAGE_NAME": "com.maskeyconsultancy.blooddonation"
        },
        "cordova-plugin-network-information": {
            "PACKAGE_NAME": "com.maskeyconsultancy.blooddonation"
        },
        "cordova-plugin-whitelist": {
            "PACKAGE_NAME": "com.maskeyconsultancy.blooddonation"
        },
        "cordova-plugin-x-toast": {
            "PACKAGE_NAME": "com.maskeyconsultancy.blooddonation"
        },
        "cordova-sqlite-storage": {
            "PACKAGE_NAME": "com.maskeyconsultancy.blooddonation"
        }
    },
    "dependent_plugins": {
        "cordova-plugin-compat": {
            "PACKAGE_NAME": "com.maskeyconsultancy.blooddonation"
        }
    }
}